{"_id":{"$oid":"5a6476156c0301000488249e"},"photos":["https://lh3.googleusercontent.com/p/AF1QipN5_2oZigClh2l7ncIy8izDDfbbG48Y2189bb_O=s1600-w600"],"review":{"positive":[{"_id":{"$oid":"5a6476156c030100048824a5"},"comment":"Nice food","count":23},{"_id":{"$oid":"5a6476156c030100048824a4"},"comment":"Reasonable price","count":16},{"_id":{"$oid":"5a6476156c030100048824a3"},"comment":"Good Ramen","count":7},{"_id":{"$oid":"5a6476156c030100048824a2"},"comment":"Good variety","count":6},{"_id":{"$oid":"5a6476156c030100048824a1"},"comment":"Prata","count":2},{"_id":{"$oid":"5a6476156c030100048824a0"},"comment":"Clean environment","count":2},{"_id":{"$oid":"5a6476156c0301000488249f"},"comment":"Now has aircon","count":2}],"negative":[{"_id":{"$oid":"5a6476156c030100048824a8"},"comment":"Weekend and dinner time is crowded","count":3},{"_id":{"$oid":"5a6476156c030100048824a7"},"comment":"Poor services","count":3},{"_id":{"$oid":"5a6476156c030100048824a6"},"comment":"Insufficient food portion","count":2}]},"last_updated":{"$date":"2018-01-21T11:14:29.216Z"},"place_id":"ChIJd_7DgE8W2jERPk9MvW9ZRNc","place_name":"Divine Realm Vegetarian Restaurant","__v":2,"location":[103.8863883,1.3721177],"rating":4.1}
{"_id":{"$oid":"5a65f3912a41f1000411d1f5"},"photos":[],"review":{"positive":[{"_id":{"$oid":"5a65f3912a41f1000411d1fb"},"comment":"Nasi Lemak is great","count":18},{"_id":{"$oid":"5a65f3912a41f1000411d1fa"},"comment":"Chicken Wings \u0026#x2F; Fried Chicken","count":7},{"_id":{"$oid":"5a65f3912a41f1000411d1f9"},"comment":"Fragrant Rice","count":4},{"_id":{"$oid":"5a65f3912a41f1000411d1f8"},"comment":"Supper Place","count":3},{"_id":{"$oid":"5a65f3912a41f1000411d1f7"},"comment":"Wide variety of food","count":2},{"_id":{"$oid":"5a65f3912a41f1000411d1f6"},"comment":"Sambal chilli","count":2}],"negative":[{"_id":{"$oid":"5a65f3912a41f1000411d201"},"comment":"Expensive","count":25},{"_id":{"$oid":"5a65f3912a41f1000411d200"},"comment":"Long Queue even at late night","count":9},{"_id":{"$oid":"5a65f3912a41f1000411d1ff"},"comment":"Not worth it","count":6},{"_id":{"$oid":"5a65f3912a41f1000411d1fe"},"comment":"Over Rated","count":3},{"_id":{"$oid":"5a65f3912a41f1000411d1fd"},"comment":"Not as good as before","count":2},{"_id":{"$oid":"5a65f3912a41f1000411d1fc"},"comment":"Close on Thursday","count":2}]},"last_updated":{"$date":"2018-02-04T07:57:23.896Z"},"place_id":"ChIJ9xM2jLQX2jERnFE93i7yBHw","place_name":"Ponggol Nasi Lemak Centre","__v":1,"location":[103.8867144,1.3619045],"rating":3.7}
{"_id":{"$oid":"5a65f4552a41f1000411d202"},"photos":["https://lh3.googleusercontent.com/p/AF1QipP0q4X3jCzowaemZbeJWah1J26PUMXlxpeJede4=s1600-w600"],"review":{"positive":[{"_id":{"$oid":"5a65f4552a41f1000411d20a"},"comment":"Good Porridge","count":28},{"_id":{"$oid":"5a65f4552a41f1000411d209"},"comment":"Cost $3-5 per meal","count":4},{"_id":{"$oid":"5a65f4552a41f1000411d208"},"comment":"Quick services","count":4},{"_id":{"$oid":"5a65f4552a41f1000411d207"},"comment":"Good selection of porridge","count":4},{"_id":{"$oid":"5a65f4552a41f1000411d206"},"comment":"Frog porridge","count":3},{"_id":{"$oid":"5a65f4552a41f1000411d205"},"comment":"Frog legs","count":3},{"_id":{"$oid":"5a65f4552a41f1000411d204"},"comment":"Pork porridge","count":2},{"_id":{"$oid":"5a65f4552a41f1000411d203"},"comment":"Cantonese style porridge","count":2}],"negative":[{"_id":{"$oid":"5a65f4552a41f1000411d20e"},"comment":"Long queue","count":7},{"_id":{"$oid":"5a65f4552a41f1000411d20d"},"comment":"Very crowded","count":5},{"_id":{"$oid":"5a65f4552a41f1000411d20c"},"comment":"Hot","count":2},{"_id":{"$oid":"5a65f4552a41f1000411d20b"},"comment":"Poor services","count":1}]},"last_updated":{"$date":"2018-02-04T08:02:39.191Z"},"place_id":"ChIJuzuRfEYW2jERnZJR_Qp7jC8","place_name":"Sin Heng Kee Porridge","__v":2,"location":[103.8857961,1.3749249],"rating":4.3}
{"_id":{"$oid":"5a65f5232a41f1000411d20f"},"photos":[],"review":{"positive":[{"_id":{"$oid":"5a672d4c8aba28000412be69"},"comment":"Tasty","count":10},{"_id":{"$oid":"5a672d4c8aba28000412be68"},"comment":"Many dishes to choose","count":9},{"_id":{"$oid":"5a672d4c8aba28000412be67"},"comment":"Reasonable price","count":8},{"_id":{"$oid":"5a672d4c8aba28000412be66"},"comment":"Open till late night","count":7},{"_id":{"$oid":"5a672d4c8aba28000412be65"},"comment":"Authentic Teochew porridge","count":5},{"_id":{"$oid":"5a672d4c8aba28000412be64"},"comment":"Good services","count":3},{"_id":{"$oid":"5a672d4c8aba28000412be63"},"comment":"Good porridge","count":4},{"_id":{"$oid":"5a672d4c8aba28000412be62"},"comment":"Braised duck","count":2},{"_id":{"$oid":"5a672d4c8aba28000412be61"},"comment":"Pig intestines","count":2}],"negative":[{"_id":{"$oid":"5a672d4c8aba28000412be6d"},"comment":"Expensive","count":6},{"_id":{"$oid":"5a672d4c8aba28000412be6c"},"comment":"Expensive Fish","count":3},{"_id":{"$oid":"5a672d4c8aba28000412be6b"},"comment":"No Parking","count":2},{"_id":{"$oid":"5a672d4c8aba28000412be6a"},"comment":"Prepare to queue","count":2}]},"last_updated":{"$date":"2018-02-04T07:57:24.815Z"},"place_id":"ChIJNUk157QX2jERJ4uYlrJxy1I","place_name":"Heng Long Teochew Porridge","__v":1,"location":[103.8879441,1.3624903],"rating":4}
{"_id":{"$oid":"5a672e908aba28000412be6e"},"photos":[],"review":{"positive":[{"_id":{"$oid":"5a672e908aba28000412be82"},"comment":"Vegetarian food is good","count":12},{"_id":{"$oid":"5a672e908aba28000412be81"},"comment":"Affordable price","count":8},{"_id":{"$oid":"5a672e908aba28000412be80"},"comment":"Pork trotter with ginger and vinegar","count":3},{"_id":{"$oid":"5a672e908aba28000412be7f"},"comment":"Prata Wrap","count":3},{"_id":{"$oid":"5a672e908aba28000412be7e"},"comment":"Fast Services","count":2},{"_id":{"$oid":"5a672e908aba28000412be7d"},"comment":"Creative Food","count":2},{"_id":{"$oid":"5a672e908aba28000412be7c"},"comment":"Sambal Mock Fish","count":1},{"_id":{"$oid":"5a672e908aba28000412be7b"},"comment":"Spinach Soup","count":1},{"_id":{"$oid":"5a672e908aba28000412be7a"},"comment":"Yam Ring","count":1},{"_id":{"$oid":"5a672e908aba28000412be79"},"comment":"Fried Oyster Mushroom","count":1},{"_id":{"$oid":"5a672e908aba28000412be78"},"comment":"Mee Hun Koay","count":1},{"_id":{"$oid":"5a672e908aba28000412be77"},"comment":"Spicy and Numbly Hot Pot","count":1},{"_id":{"$oid":"5a672e908aba28000412be76"},"comment":"Fried claypot rice","count":1},{"_id":{"$oid":"5a672e908aba28000412be75"},"comment":"Quiet place","count":1},{"_id":{"$oid":"5a672e908aba28000412be74"},"comment":"Suitable for family","count":1},{"_id":{"$oid":"5a672e908aba28000412be73"},"comment":"Dan Dan noodle","count":1},{"_id":{"$oid":"5a672e908aba28000412be72"},"comment":"Rojak","count":1},{"_id":{"$oid":"5a672e908aba28000412be71"},"comment":"Kang Kong","count":1},{"_id":{"$oid":"5a672e908aba28000412be70"},"comment":"Hot plate tofu","count":1},{"_id":{"$oid":"5a672e908aba28000412be6f"},"comment":"Mee Pok","count":1}],"negative":[{"_id":{"$oid":"5a672e908aba28000412be87"},"comment":"Queue on Sunday","count":2},{"_id":{"$oid":"5a672e908aba28000412be86"},"comment":"Slightly out of the way","count":1},{"_id":{"$oid":"5a672e908aba28000412be85"},"comment":"\u0026quot;So So\u0026quot; taste","count":1},{"_id":{"$oid":"5a672e908aba28000412be84"},"comment":"Prata with black pepper steak wrap","count":1},{"_id":{"$oid":"5a672e908aba28000412be83"},"comment":"Small. Difficult to get a seat","count":1}]},"last_updated":{"$date":"2018-02-04T08:02:40.975Z"},"place_id":"ChIJRWQ2dKUX2jERfumii2RvGmY","place_name":"Nature Vegetarian Delights Singapore","__v":1,"location":[103.8785598,1.3539055],"rating":4.5}
{"_id":{"$oid":"5a673a79cb89420004b3e6b2"},"photos":[],"review":{"positive":[{"_id":{"$oid":"5a673a79cb89420004b3e6ba"},"comment":"Curry Fish Head","count":4},{"_id":{"$oid":"5a673a79cb89420004b3e6b9"},"comment":"Reasonable price","count":4},{"_id":{"$oid":"5a673a79cb89420004b3e6b8"},"comment":"Good food","count":3},{"_id":{"$oid":"5a673a79cb89420004b3e6b7"},"comment":"Flavourful curry","count":2},{"_id":{"$oid":"5a673a79cb89420004b3e6b6"},"comment":"No GST and Service Charge","count":2},{"_id":{"$oid":"5a673a79cb89420004b3e6b5"},"comment":"Silver Fish Egg Omelette","count":1},{"_id":{"$oid":"5a673a79cb89420004b3e6b4"},"comment":"Omelette with prawn","count":1},{"_id":{"$oid":"5a673a79cb89420004b3e6b3"},"comment":"Hainanese Pork Chop","count":1}],"negative":[{"_id":{"$oid":"5a673a79cb89420004b3e6c2"},"comment":"Small Portion","count":2},{"_id":{"$oid":"5a673a79cb89420004b3e6c1"},"comment":"Expensive Fish","count":2},{"_id":{"$oid":"5a673a79cb89420004b3e6c0"},"comment":"Crowded","count":2},{"_id":{"$oid":"5a673a79cb89420004b3e6bf"},"comment":"Expect to wait during peak period","count":2},{"_id":{"$oid":"5a673a79cb89420004b3e6be"},"comment":"Curry Fish Tail is too sweet","count":1},{"_id":{"$oid":"5a673a79cb89420004b3e6bd"},"comment":"Limited seats","count":1},{"_id":{"$oid":"5a673a79cb89420004b3e6bc"},"comment":"Cold Sotong and mutton","count":1},{"_id":{"$oid":"5a673a79cb89420004b3e6bb"},"comment":"Long queue during Dinner time","count":1}]},"last_updated":{"$date":"2018-02-04T08:02:40.300Z"},"place_id":"ChIJ72vnR7EX2jER2OhAxYfJcgM","place_name":"Curry \u0026amp; Curry","__v":1,"location":[103.8843939,1.3575998],"rating":4}
{"_id":{"$oid":"5a673c88cb89420004b3e6c3"},"photos":[],"review":{"positive":[{"_id":{"$oid":"5a673c88cb89420004b3e6d1"},"comment":"Beancurd","count":8},{"_id":{"$oid":"5a673c88cb89420004b3e6d0"},"comment":"Reasonable price","count":4},{"_id":{"$oid":"5a673c88cb89420004b3e6cf"},"comment":"Nice food","count":3},{"_id":{"$oid":"5a673c88cb89420004b3e6ce"},"comment":"Glutinous Rice Balls","count":2},{"_id":{"$oid":"5a673c88cb89420004b3e6cd"},"comment":"Soya Milk","count":2},{"_id":{"$oid":"5a673c88cb89420004b3e6cc"},"comment":"Fried Dough Sticks","count":2},{"_id":{"$oid":"5a673c88cb89420004b3e6cb"},"comment":"Good Services","count":2},{"_id":{"$oid":"5a673c88cb89420004b3e6ca"},"comment":"Fritters","count":2},{"_id":{"$oid":"5a673c88cb89420004b3e6c9"},"comment":"Beancurd with Soya Milk","count":2},{"_id":{"$oid":"5a673c88cb89420004b3e6c8"},"comment":"Grass Jelly Drink","count":1},{"_id":{"$oid":"5a673c88cb89420004b3e6c7"},"comment":"Warm Almond Soya Bean milk","count":1},{"_id":{"$oid":"5a673c88cb89420004b3e6c6"},"comment":"Peanut rice ball beancurd","count":1},{"_id":{"$oid":"5a673c88cb89420004b3e6c5"},"comment":"Great for supper","count":1},{"_id":{"$oid":"5a673c88cb89420004b3e6c4"},"comment":"Soya Pudding","count":1}],"negative":[{"_id":{"$oid":"5a673c88cb89420004b3e6d9"},"comment":"Parking problem","count":3},{"_id":{"$oid":"5a673c88cb89420004b3e6d8"},"comment":"Limited seats","count":2},{"_id":{"$oid":"5a673c88cb89420004b3e6d7"},"comment":"Dough fritter wasn\u0026#x27;t crispy","count":1},{"_id":{"$oid":"5a673c88cb89420004b3e6d6"},"comment":"Parking enforcement cameras are in action","count":1},{"_id":{"$oid":"5a673c88cb89420004b3e6d5"},"comment":"Over fried You Tiao nowadays","count":1},{"_id":{"$oid":"5a673c88cb89420004b3e6d4"},"comment":"Normal Soya bean place for supper","count":1},{"_id":{"$oid":"5a673c88cb89420004b3e6d3"},"comment":"Butterfly does\u0026#x27;t taste right","count":1},{"_id":{"$oid":"5a673c88cb89420004b3e6d2"},"comment":"Sales person does not understand English","count":1}]},"last_updated":{"$date":"2018-02-04T08:02:41.788Z"},"place_id":"ChIJoeApXtEZ2jERtBbScSzXuz0","place_name":"Selegie Soya Bean","__v":1,"location":[103.8623643,1.3209984],"rating":3.7}
{"_id":{"$oid":"5a673d7dcb89420004b3e6da"},"photos":[],"review":{"positive":[{"_id":{"$oid":"5a673d7dcb89420004b3e6e3"},"comment":"Nice fish soup","count":25},{"_id":{"$oid":"5a673d7dcb89420004b3e6e2"},"comment":"Fresh fish","count":10},{"_id":{"$oid":"5a673d7dcb89420004b3e6e1"},"comment":"Add mince meat","count":5},{"_id":{"$oid":"5a673d7dcb89420004b3e6e0"},"comment":"Pomfret","count":4},{"_id":{"$oid":"5a673d7dcb89420004b3e6df"},"comment":"Batang","count":4},{"_id":{"$oid":"5a673d7dcb89420004b3e6de"},"comment":"Red Grouper","count":3},{"_id":{"$oid":"5a673d7dcb89420004b3e6dd"},"comment":"Yummy fish porridge","count":1},{"_id":{"$oid":"5a673d7dcb89420004b3e6dc"},"comment":"Fish soup with mee sua","count":1},{"_id":{"$oid":"5a673d7dcb89420004b3e6db"},"comment":"Nice porridge","count":1}],"negative":[{"_id":{"$oid":"5a673d7dcb89420004b3e6e8"},"comment":"Prepare for long queue","count":11},{"_id":{"$oid":"5a673d7dcb89420004b3e6e7"},"comment":"Waiting time at least 30 mins","count":4},{"_id":{"$oid":"5a673d7dcb89420004b3e6e6"},"comment":"Do not think that mixed seafood is worth it","count":1},{"_id":{"$oid":"5a673d7dcb89420004b3e6e5"},"comment":"Expensive for fish porridge","count":1},{"_id":{"$oid":"5a673d7dcb89420004b3e6e4"},"comment":"Standard fish soup","count":1}]},"last_updated":{"$date":"2018-02-04T08:02:42.458Z"},"place_id":"ChIJCZUH37QX2jER1y86REKX3YI","place_name":"First Street Teochew Fish Soup","__v":1,"location":[103.8882289,1.3627329],"rating":4.6}
{"_id":{"$oid":"5a673e7fcb89420004b3e6e9"},"photos":[],"review":{"positive":[{"_id":{"$oid":"5a673e7fcb89420004b3e6f1"},"comment":"Soon Kueh","count":10},{"_id":{"$oid":"5a673e7fcb89420004b3e6f0"},"comment":"Authentic Teochew Kueh","count":5},{"_id":{"$oid":"5a673e7fcb89420004b3e6ef"},"comment":"Ku Chye Kueh","count":3},{"_id":{"$oid":"5a673e7fcb89420004b3e6ee"},"comment":"Good food","count":3},{"_id":{"$oid":"5a673e7fcb89420004b3e6ed"},"comment":"Pre-packed fried bee hoon","count":2},{"_id":{"$oid":"5a673e7fcb89420004b3e6ec"},"comment":"Worth it","count":2},{"_id":{"$oid":"5a673e7fcb89420004b3e6eb"},"comment":"Peng Kueh","count":2},{"_id":{"$oid":"5a673e7fcb89420004b3e6ea"},"comment":"Fried Popiah","count":1}],"negative":[{"_id":{"$oid":"5a673e7fcb89420004b3e6f8"},"comment":"Long queue especially during weekend morning","count":4},{"_id":{"$oid":"5a673e7fcb89420004b3e6f7"},"comment":"Pricey","count":3},{"_id":{"$oid":"5a673e7fcb89420004b3e6f6"},"comment":"Inaccessible with limited parking","count":2},{"_id":{"$oid":"5a673e7fcb89420004b3e6f5"},"comment":"Served cold","count":1},{"_id":{"$oid":"5a673e7fcb89420004b3e6f4"},"comment":"Soon Kueh so so only","count":1},{"_id":{"$oid":"5a673e7fcb89420004b3e6f3"},"comment":"Bad service","count":1},{"_id":{"$oid":"5a673e7fcb89420004b3e6f2"},"comment":"Crowded","count":1}]},"last_updated":{"$date":"2018-02-04T07:57:25.507Z"},"place_id":"ChIJPbii2LQX2jERjBNdoDTOys8","place_name":"Yong\u0026#x27;s Teochew Kueh","__v":1,"location":[103.8883546,1.3628947],"rating":4.1}
{"_id":{"$oid":"5a6745f0cb89420004b3e6f9"},"photos":[],"review":{"positive":[{"_id":{"$oid":"5a68922206f891000432d463"},"comment":"Affordable Price","count":8},{"_id":{"$oid":"5a68922206f891000432d462"},"comment":"Hainanese curry rice","count":8},{"_id":{"$oid":"5a68922206f891000432d461"},"comment":"Good food","count":8},{"_id":{"$oid":"5a68922206f891000432d460"},"comment":"Pork chop","count":5},{"_id":{"$oid":"5a68922206f891000432d45f"},"comment":"Fried chicken wings","count":4},{"_id":{"$oid":"5a68922206f891000432d45e"},"comment":"Chendol","count":4},{"_id":{"$oid":"5a68922206f891000432d45d"},"comment":"Good porridge","count":2},{"_id":{"$oid":"5a68922206f891000432d45c"},"comment":"Traditional dessert","count":2},{"_id":{"$oid":"5a68922206f891000432d45b"},"comment":"Special Chili Sauce","count":2},{"_id":{"$oid":"5a68922206f891000432d45a"},"comment":"Cabbage","count":1},{"_id":{"$oid":"5a68922206f891000432d459"},"comment":"Ice Jelly","count":1},{"_id":{"$oid":"5a68922206f891000432d458"},"comment":"Friendly","count":1},{"_id":{"$oid":"5a68922206f891000432d457"},"comment":"Fried Chicken","count":1},{"_id":{"$oid":"5a68922206f891000432d456"},"comment":"Omelette","count":1},{"_id":{"$oid":"5a68922206f891000432d455"},"comment":"Braised pork belly","count":1}],"negative":[{"_id":{"$oid":"5a68922206f891000432d469"},"comment":"Always long queue","count":3},{"_id":{"$oid":"5a68922206f891000432d468"},"comment":"Parking is a problem","count":2},{"_id":{"$oid":"5a68922206f891000432d467"},"comment":"Overrated food","count":2},{"_id":{"$oid":"5a68922206f891000432d466"},"comment":"Pork chop over-fried and dry","count":1},{"_id":{"$oid":"5a68922206f891000432d465"},"comment":"Long wait during peak period","count":1},{"_id":{"$oid":"5a68922206f891000432d464"},"comment":"Poor services","count":1}]},"last_updated":{"$date":"2018-02-04T07:57:26.375Z"},"place_id":"ChIJB9Np37QX2jERXNfNuOGtO74","place_name":"Sin Chie Toke Huan Hainanese Curry","__v":1,"location":[103.888243,1.362818],"rating":4.2}
{"_id":{"$oid":"5a6894fb06f891000432d46a"},"photos":[],"review":{"positive":[{"_id":{"$oid":"5a6894fb06f891000432d479"},"comment":"Nice ambience","count":12},{"_id":{"$oid":"5a6894fb06f891000432d478"},"comment":"Nice ice cream","count":7},{"_id":{"$oid":"5a6894fb06f891000432d477"},"comment":"Fascinating ice cream menu","count":5},{"_id":{"$oid":"5a6894fb06f891000432d476"},"comment":"Chili Crab","count":3},{"_id":{"$oid":"5a6894fb06f891000432d475"},"comment":"Reasonable price","count":3},{"_id":{"$oid":"5a6894fb06f891000432d474"},"comment":"Black pepper crab","count":2},{"_id":{"$oid":"5a6894fb06f891000432d473"},"comment":"Many different flavours","count":1},{"_id":{"$oid":"5a6894fb06f891000432d472"},"comment":"Good dessert","count":1},{"_id":{"$oid":"5a6894fb06f891000432d471"},"comment":"Lovely services","count":1},{"_id":{"$oid":"5a6894fb06f891000432d470"},"comment":"Serve Papa Palheta coffee","count":1},{"_id":{"$oid":"5a6894fb06f891000432d46f"},"comment":"Charcoal Waffle with rum and rasin + Happy Berry","count":1},{"_id":{"$oid":"5a6894fb06f891000432d46e"},"comment":"Moscato","count":1},{"_id":{"$oid":"5a6894fb06f891000432d46d"},"comment":"Good Cake","count":1},{"_id":{"$oid":"5a6894fb06f891000432d46c"},"comment":"Mint ice cream","count":1},{"_id":{"$oid":"5a6894fb06f891000432d46b"},"comment":"Nice place to chili","count":1}],"negative":[{"_id":{"$oid":"5a6894fb06f891000432d47b"},"comment":"Pricey","count":2},{"_id":{"$oid":"5a6894fb06f891000432d47a"},"comment":"Too sweet","count":1}]},"last_updated":{"$date":"2018-02-04T07:57:27.886Z"},"place_id":"ChIJ1wVFWCMW2jERWecyFLDd2V0","place_name":"Mingle Mangle","__v":1,"location":[103.90365,1.377847],"rating":4.2}
{"_id":{"$oid":"5a68961706f891000432d47c"},"photos":[],"review":{"positive":[{"_id":{"$oid":"5a68961706f891000432d48f"},"comment":"Good quality food","count":7},{"_id":{"$oid":"5a68961706f891000432d48e"},"comment":"Reasonable price","count":3},{"_id":{"$oid":"5a68961706f891000432d48d"},"comment":"Superb service","count":2},{"_id":{"$oid":"5a68961706f891000432d48c"},"comment":"Fresh seafood","count":2},{"_id":{"$oid":"5a68961706f891000432d48b"},"comment":"Good Thai restaurant","count":2},{"_id":{"$oid":"5a68961706f891000432d48a"},"comment":"Crab Bee Hoon pot","count":2},{"_id":{"$oid":"5a68961706f891000432d489"},"comment":"Cod fish","count":2},{"_id":{"$oid":"5a68961706f891000432d488"},"comment":"Pineapple rice","count":1},{"_id":{"$oid":"5a68961706f891000432d487"},"comment":"Steamed seafood platter","count":1},{"_id":{"$oid":"5a68961706f891000432d486"},"comment":"Squid","count":1},{"_id":{"$oid":"5a68961706f891000432d485"},"comment":"Oysters","count":1},{"_id":{"$oid":"5a68961706f891000432d484"},"comment":"Pork Belly","count":1},{"_id":{"$oid":"5a68961706f891000432d483"},"comment":"Mussels","count":1},{"_id":{"$oid":"5a68961706f891000432d482"},"comment":"Lala","count":1},{"_id":{"$oid":"5a68961706f891000432d481"},"comment":"Crab","count":1},{"_id":{"$oid":"5a68961706f891000432d480"},"comment":"Basil Mince Pork","count":1},{"_id":{"$oid":"5a68961706f891000432d47f"},"comment":"Deep fried garlic chicken","count":1},{"_id":{"$oid":"5a68961706f891000432d47e"},"comment":"Tom Yum","count":1},{"_id":{"$oid":"5a68961706f891000432d47d"},"comment":"Fish Cake","count":1}],"negative":[{"_id":{"$oid":"5a68961706f891000432d496"},"comment":"Green Curry","count":2},{"_id":{"$oid":"5a68961706f891000432d495"},"comment":"Pricey","count":2},{"_id":{"$oid":"5a68961706f891000432d494"},"comment":"Tom Yum Soup","count":1},{"_id":{"$oid":"5a68961706f891000432d493"},"comment":"Hard to find parking","count":1},{"_id":{"$oid":"5a68961706f891000432d492"},"comment":"Always crowded","count":1},{"_id":{"$oid":"5a68961706f891000432d491"},"comment":"Cancel UberEats order without notification","count":1},{"_id":{"$oid":"5a68961706f891000432d490"},"comment":"Long waiting time","count":1}]},"last_updated":{"$date":"2018-02-04T07:57:29.729Z"},"place_id":"ChIJK8twCqUX2jERyrZuWPofbzU","place_name":"Yaowarat Seafood","__v":1,"location":[103.8766659,1.353259],"rating":4.2}
{"_id":{"$oid":"5a68976506f891000432d497"},"photos":[],"review":{"positive":[{"_id":{"$oid":"5a68976506f891000432d4a7"},"comment":"Tasty Teochew Porridge","count":13},{"_id":{"$oid":"5a68976506f891000432d4a6"},"comment":"Reasonable price","count":10},{"_id":{"$oid":"5a68976506f891000432d4a5"},"comment":"Wide selections","count":9},{"_id":{"$oid":"5a68976506f891000432d4a4"},"comment":"Traditional","count":5},{"_id":{"$oid":"5a68976506f891000432d4a3"},"comment":"Good services","count":4},{"_id":{"$oid":"5a68976506f891000432d4a2"},"comment":"Can park right outside the store","count":2},{"_id":{"$oid":"5a68976506f891000432d4a1"},"comment":"Open till quite late","count":2},{"_id":{"$oid":"5a68976506f891000432d4a0"},"comment":"Have condiments to add","count":2},{"_id":{"$oid":"5a68976506f891000432d49f"},"comment":"Fish cake","count":1},{"_id":{"$oid":"5a68976506f891000432d49e"},"comment":"Braised pork","count":1},{"_id":{"$oid":"5a68976506f891000432d49d"},"comment":"Spacious","count":1},{"_id":{"$oid":"5a68976506f891000432d49c"},"comment":"Salty mustard","count":1},{"_id":{"$oid":"5a68976506f891000432d49b"},"comment":"Intestines","count":1},{"_id":{"$oid":"5a68976506f891000432d49a"},"comment":"Braised duck","count":1},{"_id":{"$oid":"5a68976506f891000432d499"},"comment":"Minced pork","count":1},{"_id":{"$oid":"5a68976506f891000432d498"},"comment":"Sting Ray","count":1}],"negative":[{"_id":{"$oid":"5a68976506f891000432d4b3"},"comment":"Nothing special","count":6},{"_id":{"$oid":"5a68976506f891000432d4b2"},"comment":"Pricey","count":3},{"_id":{"$oid":"5a68976506f891000432d4b1"},"comment":"Traffic officers frequent the road","count":2},{"_id":{"$oid":"5a68976506f891000432d4b0"},"comment":"Parking is difficult","count":2},{"_id":{"$oid":"5a68976506f891000432d4af"},"comment":"Crowded","count":2},{"_id":{"$oid":"5a68976506f891000432d4ae"},"comment":"Quite salty food","count":2},{"_id":{"$oid":"5a68976506f891000432d4ad"},"comment":"Fish is expensive","count":1},{"_id":{"$oid":"5a68976506f891000432d4ac"},"comment":"Tables are sometimes dirty","count":1},{"_id":{"$oid":"5a68976506f891000432d4ab"},"comment":"Steamed egg is too salty","count":1},{"_id":{"$oid":"5a68976506f891000432d4aa"},"comment":"Tau Pok is too salty","count":1},{"_id":{"$oid":"5a68976506f891000432d4a9"},"comment":"Not suitable for small kids during dinner time","count":1},{"_id":{"$oid":"5a68976506f891000432d4a8"},"comment":"Toilet is not so clean","count":1}]},"last_updated":{"$date":"2018-02-04T08:02:43.918Z"},"place_id":"ChIJfxn1GUUFBBAR3CXDmPxqIzY","place_name":"Ah Seah Teochew Porridge","__v":1,"location":[103.8767909,1.353352],"rating":4.1}
{"_id":{"$oid":"5a689fa33e47690004cee41d"},"photos":[],"review":{"positive":[{"_id":{"$oid":"5a689fa33e47690004cee42c"},"comment":"Friendly staffs","count":9},{"_id":{"$oid":"5a689fa33e47690004cee42b"},"comment":"Laksa soup base","count":8},{"_id":{"$oid":"5a689fa33e47690004cee42a"},"comment":"Fresh food","count":7},{"_id":{"$oid":"5a689fa33e47690004cee429"},"comment":"Good array of ingredients","count":7},{"_id":{"$oid":"5a689fa33e47690004cee428"},"comment":"Affordable","count":6},{"_id":{"$oid":"5a689fa33e47690004cee427"},"comment":"Nice steamboat","count":6},{"_id":{"$oid":"5a689fa33e47690004cee426"},"comment":"Prawn pasted chicken","count":5},{"_id":{"$oid":"5a689fa33e47690004cee425"},"comment":"Ice cream","count":5},{"_id":{"$oid":"5a689fa33e47690004cee424"},"comment":"Home made dessert","count":2},{"_id":{"$oid":"5a689fa33e47690004cee423"},"comment":"Flower crab","count":2},{"_id":{"$oid":"5a689fa33e47690004cee422"},"comment":"Chilled soya bean pudding","count":2},{"_id":{"$oid":"5a689fa33e47690004cee421"},"comment":"Thai styled deep fried tofu","count":1},{"_id":{"$oid":"5a689fa33e47690004cee420"},"comment":"Spacious","count":1},{"_id":{"$oid":"5a689fa33e47690004cee41f"},"comment":"Herbal soup base","count":1},{"_id":{"$oid":"5a689fa33e47690004cee41e"},"comment":"Brown rice Laksa noodle","count":1}],"negative":[{"_id":{"$oid":"5a689fa33e47690004cee434"},"comment":"Bad services","count":3},{"_id":{"$oid":"5a689fa33e47690004cee433"},"comment":"Slow services","count":3},{"_id":{"$oid":"5a689fa33e47690004cee432"},"comment":"Soup base too salty","count":2},{"_id":{"$oid":"5a689fa33e47690004cee431"},"comment":"Cockles and lala had stinky smell","count":1},{"_id":{"$oid":"5a689fa33e47690004cee430"},"comment":"Laksa soup diluted after refill","count":1},{"_id":{"$oid":"5a689fa33e47690004cee42f"},"comment":"Lack of staffs","count":1},{"_id":{"$oid":"5a689fa33e47690004cee42e"},"comment":"Thirsty after meal","count":1},{"_id":{"$oid":"5a689fa33e47690004cee42d"},"comment":"Space is tight","count":1}]},"last_updated":{"$date":"2018-02-04T07:57:34.955Z"},"place_id":"ChIJAXotoaUX2jERmbkrbf0BgGY","place_name":"King\u0026#x27;s Lasak Steamboat","__v":1,"location":[103.876513,1.353096],"rating":3.8}
{"_id":{"$oid":"5a68a07f3e47690004cee435"},"photos":[],"review":{"positive":[{"_id":{"$oid":"5a68a07f3e47690004cee43f"},"comment":"Vegetarian food tastes good","count":17},{"_id":{"$oid":"5a68a07f3e47690004cee43e"},"comment":"Reasonable price","count":4},{"_id":{"$oid":"5a68a07f3e47690004cee43d"},"comment":"Great services","count":3},{"_id":{"$oid":"5a68a07f3e47690004cee43c"},"comment":"Cozy","count":2},{"_id":{"$oid":"5a68a07f3e47690004cee43b"},"comment":"Worth it","count":2},{"_id":{"$oid":"5a68a07f3e47690004cee43a"},"comment":"Suitable for large gathering and celebration","count":1},{"_id":{"$oid":"5a68a07f3e47690004cee439"},"comment":"Assam fish and prawn","count":1},{"_id":{"$oid":"5a68a07f3e47690004cee438"},"comment":"Vegetarian fish","count":1},{"_id":{"$oid":"5a68a07f3e47690004cee437"},"comment":"Monkey head mushroom","count":1},{"_id":{"$oid":"5a68a07f3e47690004cee436"},"comment":"Honeydew Sago","count":null}],"negative":[{"_id":{"$oid":"5a68a07f3e47690004cee446"},"comment":"Little expensive","count":3},{"_id":{"$oid":"5a68a07f3e47690004cee445"},"comment":"Speak only chinese","count":2},{"_id":{"$oid":"5a68a07f3e47690004cee444"},"comment":"Poor service","count":2},{"_id":{"$oid":"5a68a07f3e47690004cee443"},"comment":"Mee Goreng was too spicy","count":1},{"_id":{"$oid":"5a68a07f3e47690004cee442"},"comment":"Salty food","count":1},{"_id":{"$oid":"5a68a07f3e47690004cee441"},"comment":"Not a cozy environment to sit in","count":1},{"_id":{"$oid":"5a68a07f3e47690004cee440"},"comment":"Long queue","count":1}]},"last_updated":{"$date":"2018-02-04T07:57:31.572Z"},"place_id":"ChIJ-7mO4K8X2jERfxwr_C6lMlQ","place_name":"Greenland Vegetarian Restaurant","__v":1,"location":[103.8794344,1.3555286],"rating":4.1}
{"_id":{"$oid":"5a68a15f3e47690004cee447"},"photos":[],"review":{"positive":[{"_id":{"$oid":"5a68a15f3e47690004cee456"},"comment":"Taste great","count":13},{"_id":{"$oid":"5a68a15f3e47690004cee455"},"comment":"Authentic Teochew porridge","count":7},{"_id":{"$oid":"5a68a15f3e47690004cee454"},"comment":"Many varieties","count":5},{"_id":{"$oid":"5a68a15f3e47690004cee453"},"comment":"Reasonable price","count":3},{"_id":{"$oid":"5a68a15f3e47690004cee452"},"comment":"Pork Chop is nice","count":2},{"_id":{"$oid":"5a68a15f3e47690004cee451"},"comment":"Fish is fresh","count":2},{"_id":{"$oid":"5a68a15f3e47690004cee450"},"comment":"Helpful staffs","count":2},{"_id":{"$oid":"5a68a15f3e47690004cee44f"},"comment":"Worth it","count":1},{"_id":{"$oid":"5a68a15f3e47690004cee44e"},"comment":"Duck slices","count":1},{"_id":{"$oid":"5a68a15f3e47690004cee44d"},"comment":"Squids","count":1},{"_id":{"$oid":"5a68a15f3e47690004cee44c"},"comment":"Fish head","count":1},{"_id":{"$oid":"5a68a15f3e47690004cee44b"},"comment":"Bitter gourd stir fried","count":1},{"_id":{"$oid":"5a68a15f3e47690004cee44a"},"comment":"Deep fried fish head in spicy bean sauce","count":1},{"_id":{"$oid":"5a68a15f3e47690004cee449"},"comment":"Braised pigskin","count":1},{"_id":{"$oid":"5a68a15f3e47690004cee448"},"comment":"Peanuts","count":1}],"negative":[{"_id":{"$oid":"5a68a15f3e47690004cee45c"},"comment":"Pricey","count":8},{"_id":{"$oid":"5a68a15f3e47690004cee45b"},"comment":"Seat is limited","count":2},{"_id":{"$oid":"5a68a15f3e47690004cee45a"},"comment":"Parking is a problem","count":1},{"_id":{"$oid":"5a68a15f3e47690004cee459"},"comment":"Nothing to highlight","count":1},{"_id":{"$oid":"5a68a15f3e47690004cee458"},"comment":"Sold out quickly","count":1},{"_id":{"$oid":"5a68a15f3e47690004cee457"},"comment":"Long queue during peak hours","count":1}]},"last_updated":{"$date":"2018-02-04T07:57:30.652Z"},"place_id":"ChIJSWnihLQX2jER9RmPftaJK4g","place_name":"Soon Soon Teochew Porridge Restaurant","__v":1,"location":[103.8857552,1.3618623],"rating":4.2}
{"_id":{"$oid":"5a68a2c23e47690004cee45d"},"photos":[],"review":{"positive":[{"_id":{"$oid":"5a68a2c23e47690004cee470"},"comment":"Nice food","count":19},{"_id":{"$oid":"5a68a2c23e47690004cee46f"},"comment":"Friendly staffs","count":8},{"_id":{"$oid":"5a68a2c23e47690004cee46e"},"comment":"Good coffee","count":6},{"_id":{"$oid":"5a68a2c23e47690004cee46d"},"comment":"Chicken wings","count":5},{"_id":{"$oid":"5a68a2c23e47690004cee46c"},"comment":"Good dessert","count":4},{"_id":{"$oid":"5a68a2c23e47690004cee46b"},"comment":"Ambience","count":4},{"_id":{"$oid":"5a68a2c23e47690004cee46a"},"comment":"Nacho fries","count":3},{"_id":{"$oid":"5a68a2c23e47690004cee469"},"comment":"Egg Benedict","count":3},{"_id":{"$oid":"5a68a2c23e47690004cee468"},"comment":"Ultimate Croissant","count":3},{"_id":{"$oid":"5a68a2c23e47690004cee467"},"comment":"Nice cakes","count":2},{"_id":{"$oid":"5a68a2c23e47690004cee466"},"comment":"Brunch","count":2},{"_id":{"$oid":"5a68a2c23e47690004cee465"},"comment":"Pasta","count":2},{"_id":{"$oid":"5a68a2c23e47690004cee464"},"comment":"Value for money","count":2},{"_id":{"$oid":"5a68a2c23e47690004cee463"},"comment":"Flat white","count":2},{"_id":{"$oid":"5a68a2c23e47690004cee462"},"comment":"Lime Tart","count":1},{"_id":{"$oid":"5a68a2c23e47690004cee461"},"comment":"Cheese fries","count":1},{"_id":{"$oid":"5a68a2c23e47690004cee460"},"comment":"Truffle fries","count":1},{"_id":{"$oid":"5a68a2c23e47690004cee45f"},"comment":"Braised pork with truffle mashed potatoes","count":1},{"_id":{"$oid":"5a68a2c23e47690004cee45e"},"comment":"Chicken salad","count":1}],"negative":[{"_id":{"$oid":"5a68a2c23e47690004cee47a"},"comment":"Expect long wait","count":10},{"_id":{"$oid":"5a68a2c23e47690004cee479"},"comment":"Crowded","count":5},{"_id":{"$oid":"5a68a2c23e47690004cee478"},"comment":"Expensive","count":4},{"_id":{"$oid":"5a68a2c23e47690004cee477"},"comment":"Rushing us to finish breakfast","count":2},{"_id":{"$oid":"5a68a2c23e47690004cee476"},"comment":"Poor services","count":2},{"_id":{"$oid":"5a68a2c23e47690004cee475"},"comment":"Cannot stay too long due to long queue","count":2},{"_id":{"$oid":"5a68a2c23e47690004cee474"},"comment":"Coffee was served cold","count":1},{"_id":{"$oid":"5a68a2c23e47690004cee473"},"comment":"Noisy","count":1},{"_id":{"$oid":"5a68a2c23e47690004cee472"},"comment":"Recommend to do reservation in advance","count":1},{"_id":{"$oid":"5a68a2c23e47690004cee471"},"comment":"Juices","count":1}]},"last_updated":{"$date":"2018-02-04T08:02:44.918Z"},"place_id":"ChIJV1FWhrQX2jERW2niVztAIj8","place_name":"Lola\u0026#x27;s Cafe","__v":1,"location":[103.8859561,1.3616352],"rating":4.2}
{"_id":{"$oid":"5a68a4883e47690004cee47b"},"photos":[],"review":{"positive":[{"_id":{"$oid":"5a69c7087723240004edb821"},"comment":"Food tasted good","count":11},{"_id":{"$oid":"5a69c7087723240004edb820"},"comment":"Pan fried dumpling is good","count":7},{"_id":{"$oid":"5a69c7087723240004edb81f"},"comment":"Xiao long bao is good","count":5},{"_id":{"$oid":"5a69c7087723240004edb81e"},"comment":"Reasonable price","count":5},{"_id":{"$oid":"5a69c7087723240004edb81d"},"comment":"Dumpling is good","count":3},{"_id":{"$oid":"5a69c7087723240004edb81c"},"comment":"Shanghainese food","count":3},{"_id":{"$oid":"5a69c7087723240004edb81b"},"comment":"Fast services","count":2},{"_id":{"$oid":"5a69c7087723240004edb81a"},"comment":"Noodles are worth giving a try","count":2},{"_id":{"$oid":"5a69c7087723240004edb819"},"comment":"Fried pork cutlet","count":2},{"_id":{"$oid":"5a69c7087723240004edb818"},"comment":"No GST and Service charges","count":1},{"_id":{"$oid":"5a69c7087723240004edb817"},"comment":"Services are good","count":1},{"_id":{"$oid":"5a69c7087723240004edb816"},"comment":"Ambience is good","count":1},{"_id":{"$oid":"5a69c7087723240004edb815"},"comment":"Clean place","count":1},{"_id":{"$oid":"5a69c7087723240004edb814"},"comment":"Drunken chicken wings","count":1},{"_id":{"$oid":"5a69c7087723240004edb813"},"comment":"Crab dumpling","count":1},{"_id":{"$oid":"5a69c7087723240004edb812"},"comment":"Nice dim sum","count":1},{"_id":{"$oid":"5a69c7087723240004edb811"},"comment":"Siew Mai","count":1},{"_id":{"$oid":"5a69c7087723240004edb810"},"comment":"Signature steam pork with rice","count":1},{"_id":{"$oid":"5a69c7087723240004edb80f"},"comment":"Curry beef soup with vermicelli","count":1},{"_id":{"$oid":"5a69c7087723240004edb80e"},"comment":"Soup pork dumpling","count":1}],"negative":[{"_id":{"$oid":"5a69c7087723240004edb82b"},"comment":"Dumpling\u0026#x27;s skin too thick","count":3},{"_id":{"$oid":"5a69c7087723240004edb82a"},"comment":"Spicy \u0026amp; Sour soup","count":3},{"_id":{"$oid":"5a69c7087723240004edb829"},"comment":"A bit on the sweet side","count":3},{"_id":{"$oid":"5a69c7087723240004edb828"},"comment":"Poor portion","count":2},{"_id":{"$oid":"5a69c7087723240004edb827"},"comment":"Soy Milk","count":2},{"_id":{"$oid":"5a69c7087723240004edb826"},"comment":"Noodle","count":2},{"_id":{"$oid":"5a69c7087723240004edb825"},"comment":"Pork flavours is just too excessive","count":1},{"_id":{"$oid":"5a69c7087723240004edb824"},"comment":"Barley drink taste like plain water","count":1},{"_id":{"$oid":"5a69c7087723240004edb823"},"comment":"Noodles and other dishes are just average","count":1},{"_id":{"$oid":"5a69c7087723240004edb822"},"comment":"Salty food","count":1}]},"last_updated":{"$date":"2018-02-04T08:02:46.465Z"},"place_id":"ChIJ4Vd2YrQX2jERL6rmXI8ML28","place_name":"Ding Tele","__v":1,"location":[103.886366,1.36143],"rating":4.2}
{"_id":{"$oid":"5a69e93514c7ae00048ea1c6"},"photos":[],"review":{"positive":[{"_id":{"$oid":"5a69e93514c7ae00048ea1d8"},"comment":"Nice Food","count":5},{"_id":{"$oid":"5a69e93514c7ae00048ea1d7"},"comment":"Duck rice","count":3},{"_id":{"$oid":"5a69e93514c7ae00048ea1d6"},"comment":"Roti Prata","count":3},{"_id":{"$oid":"5a69e93514c7ae00048ea1d5"},"comment":"Kueh Chap is good and value for money","count":3},{"_id":{"$oid":"5a69e93514c7ae00048ea1d4"},"comment":"Cheap","count":3},{"_id":{"$oid":"5a69e93514c7ae00048ea1d3"},"comment":"Chicken rice is popular","count":2},{"_id":{"$oid":"5a69e93514c7ae00048ea1d2"},"comment":"Duck porridge","count":1},{"_id":{"$oid":"5a69e93514c7ae00048ea1d1"},"comment":"Duck Noodle","count":1},{"_id":{"$oid":"5a69e93514c7ae00048ea1d0"},"comment":"Wanton noodles","count":1},{"_id":{"$oid":"5a69e93514c7ae00048ea1cf"},"comment":"Parking is convenient","count":1},{"_id":{"$oid":"5a69e93514c7ae00048ea1ce"},"comment":"Chili Crab","count":1},{"_id":{"$oid":"5a69e93514c7ae00048ea1cd"},"comment":"Steam fish","count":1},{"_id":{"$oid":"5a69e93514c7ae00048ea1cc"},"comment":"Lala","count":1},{"_id":{"$oid":"5a69e93514c7ae00048ea1cb"},"comment":"Hokkien Mee","count":1},{"_id":{"$oid":"5a69e93514c7ae00048ea1ca"},"comment":"Vegetarian stall","count":1},{"_id":{"$oid":"5a69e93514c7ae00048ea1c9"},"comment":"Mee Poh","count":1},{"_id":{"$oid":"5a69e93514c7ae00048ea1c8"},"comment":"Good Variety","count":1},{"_id":{"$oid":"5a69e93514c7ae00048ea1c7"},"comment":"Economy rice","count":1}],"negative":[{"_id":{"$oid":"5a69e93514c7ae00048ea1dc"},"comment":"Economy rice is bad after changing chef","count":1},{"_id":{"$oid":"5a69e93514c7ae00048ea1db"},"comment":"Quite crowded","count":1},{"_id":{"$oid":"5a69e93514c7ae00048ea1da"},"comment":"Washroom and customer service is as bad as they can","count":1},{"_id":{"$oid":"5a69e93514c7ae00048ea1d9"},"comment":"Self service","count":1}]},"last_updated":{"$date":"2018-02-04T07:57:32.493Z"},"place_id":"ChIJPdng7EoW2jERG-JKSUx4u40","place_name":"MTF Coffee Shop","__v":1,"location":[103.8896491,1.3653596],"rating":3.9}
{"_id":{"$oid":"5a69ebb514c7ae00048ea1dd"},"photos":["https://lh3.googleusercontent.com/p/AF1QipOGK1EryKpMq7o-9SgJoHe1C-hBv48mBpV4zHgh=s1600-w600"],"review":{"positive":[{"_id":{"$oid":"5a69ebb514c7ae00048ea1ec"},"comment":"Great and authentic Teochew cuisine","count":15},{"_id":{"$oid":"5a69ebb514c7ae00048ea1eb"},"comment":"Suitable for family visit","count":6},{"_id":{"$oid":"5a69ebb514c7ae00048ea1ea"},"comment":"Orh Ni (Yam) is a must try","count":4},{"_id":{"$oid":"5a69ebb514c7ae00048ea1e9"},"comment":"Braised duck is delicious","count":3},{"_id":{"$oid":"5a69ebb514c7ae00048ea1e8"},"comment":"Cozy place","count":3},{"_id":{"$oid":"5a69ebb514c7ae00048ea1e7"},"comment":"Staffs are friendly","count":3},{"_id":{"$oid":"5a69ebb514c7ae00048ea1e6"},"comment":"Very affordable","count":3},{"_id":{"$oid":"5a69ebb514c7ae00048ea1e5"},"comment":"Kong Ba Pau is good","count":2},{"_id":{"$oid":"5a69ebb514c7ae00048ea1e4"},"comment":"Teochew steamed fish is the best","count":2},{"_id":{"$oid":"5a69ebb514c7ae00048ea1e3"},"comment":"Deep fried prawn ball is good","count":1},{"_id":{"$oid":"5a69ebb514c7ae00048ea1e2"},"comment":"Sotong is nice and fresh","count":1},{"_id":{"$oid":"5a69ebb514c7ae00048ea1e1"},"comment":"Beef Kuay Teow is tasty","count":1},{"_id":{"$oid":"5a69ebb514c7ae00048ea1e0"},"comment":"Fried noodle","count":1},{"_id":{"$oid":"5a69ebb514c7ae00048ea1df"},"comment":"No extra fees for bringing your own wine","count":1},{"_id":{"$oid":"5a69ebb514c7ae00048ea1de"},"comment":"Kids friendly","count":1}],"negative":[{"_id":{"$oid":"5a69ebb514c7ae00048ea1f0"},"comment":"Deep fried prawn ball is too starchy","count":1},{"_id":{"$oid":"5a69ebb514c7ae00048ea1ef"},"comment":"Garlic fish is too old and tough","count":1},{"_id":{"$oid":"5a69ebb514c7ae00048ea1ee"},"comment":"Service can be better","count":1},{"_id":{"$oid":"5a69ebb514c7ae00048ea1ed"},"comment":"Food is so so only","count":1}]},"last_updated":{"$date":"2018-02-04T07:57:33.416Z"},"place_id":"ChIJofQNDUoW2jERAra822LwR1o","place_name":"Peng\u0026#x27;s Restaurant \u0026amp; Catering","__v":2,"location":[103.8905656,1.3676399],"rating":4.2}
{"_id":{"$oid":"5a69ec3514c7ae00048ea1f1"},"photos":[],"review":{"positive":[{"_id":{"$oid":"5a69ec3514c7ae00048ea1f6"},"comment":"Good quality","count":6},{"_id":{"$oid":"5a69ec3514c7ae00048ea1f5"},"comment":"More flavourful Hokkien Mee around","count":3},{"_id":{"$oid":"5a69ec3514c7ae00048ea1f4"},"comment":"Quite good","count":3},{"_id":{"$oid":"5a69ec3514c7ae00048ea1f3"},"comment":"Balacan Chilli","count":2},{"_id":{"$oid":"5a69ec3514c7ae00048ea1f2"},"comment":"Dryer version of Hokkien Mee","count":1}],"negative":[{"_id":{"$oid":"5a69ec3514c7ae00048ea1fa"},"comment":"No big deal","count":3},{"_id":{"$oid":"5a69ec3514c7ae00048ea1f9"},"comment":"Portion could be bigger","count":3},{"_id":{"$oid":"5a69ec3514c7ae00048ea1f8"},"comment":"Expensive","count":3},{"_id":{"$oid":"5a69ec3514c7ae00048ea1f7"},"comment":"Inconsistant","count":1}]},"last_updated":{"$date":"2018-02-04T07:57:34.029Z"},"place_id":"ChIJ1165IbQX2jERnH8y1wLZTvs","place_name":"Simon Road Hokkien Mee","__v":1,"location":[103.8875209,1.3591827],"rating":3.8}
{"_id":{"$oid":"5a69edea14c7ae00048ea1fb"},"photos":[],"review":{"positive":[{"_id":{"$oid":"5a69edea14c7ae00048ea206"},"comment":"Cheap price for crab","count":8},{"_id":{"$oid":"5a69edea14c7ae00048ea205"},"comment":"Crab is their highlight","count":7},{"_id":{"$oid":"5a69edea14c7ae00048ea204"},"comment":"Salty egg crabs are delicious","count":3},{"_id":{"$oid":"5a69edea14c7ae00048ea203"},"comment":"No GST and Services charge","count":1},{"_id":{"$oid":"5a69edea14c7ae00048ea202"},"comment":"Better to order by number of crabs instead of weight","count":1},{"_id":{"$oid":"5a69edea14c7ae00048ea201"},"comment":"Suitable for family hangout","count":1},{"_id":{"$oid":"5a69edea14c7ae00048ea200"},"comment":"Fresh crab","count":1},{"_id":{"$oid":"5a69edea14c7ae00048ea1ff"},"comment":"Har Chong Gai is very good","count":1},{"_id":{"$oid":"5a69edea14c7ae00048ea1fe"},"comment":"Bee Hoon in gravy sauce is quite good","count":1},{"_id":{"$oid":"5a69edea14c7ae00048ea1fd"},"comment":"Prefer black pepper crab over garlic crab","count":1},{"_id":{"$oid":"5a69edea14c7ae00048ea1fc"},"comment":"Love their curry fish head","count":1}],"negative":[{"_id":{"$oid":"5a69edea14c7ae00048ea215"},"comment":"Quite long queue during peak hours","count":4},{"_id":{"$oid":"5a69edea14c7ae00048ea214"},"comment":"Poor services","count":4},{"_id":{"$oid":"5a69edea14c7ae00048ea213"},"comment":"Serving size is tiny","count":2},{"_id":{"$oid":"5a69edea14c7ae00048ea212"},"comment":"Food is below average","count":1},{"_id":{"$oid":"5a69edea14c7ae00048ea211"},"comment":"Chili crab is watery and flavourless","count":1},{"_id":{"$oid":"5a69edea14c7ae00048ea210"},"comment":"Kampong chicken has nothing to shout about","count":1},{"_id":{"$oid":"5a69edea14c7ae00048ea20f"},"comment":"Long wait","count":1},{"_id":{"$oid":"5a69edea14c7ae00048ea20e"},"comment":"Food tasted average","count":1},{"_id":{"$oid":"5a69edea14c7ae00048ea20d"},"comment":"Do not understand English","count":1},{"_id":{"$oid":"5a69edea14c7ae00048ea20c"},"comment":"Suffered from diarrhoea after eating","count":1},{"_id":{"$oid":"5a69edea14c7ae00048ea20b"},"comment":"Crab shells are dirty","count":1},{"_id":{"$oid":"5a69edea14c7ae00048ea20a"},"comment":"Crab does not have any crab roe","count":1},{"_id":{"$oid":"5a69edea14c7ae00048ea209"},"comment":"Crabs are not fresh","count":1},{"_id":{"$oid":"5a69edea14c7ae00048ea208"},"comment":"Limited drinks option","count":1},{"_id":{"$oid":"5a69edea14c7ae00048ea207"},"comment":"Inconsistent food quality","count":1}]},"last_updated":{"$date":"2018-02-04T08:02:47.683Z"},"place_id":"ChIJK52KLLQX2jER3Vc1cET5-CQ","place_name":"21 Seafood","__v":1,"location":[103.8884493,1.3596532],"rating":3.5}
{"_id":{"$oid":"5a69efc414c7ae00048ea216"},"photos":["https://lh3.googleusercontent.com/p/AF1QipPeVP-ozujbMF6C_KjVtWpS7t1o1NX6PSmcSaNj=s1600-w600"],"review":{"positive":[{"_id":{"$oid":"5a6c6afec134bd0004ab6a04"},"comment":"Great Thai food","count":18},{"_id":{"$oid":"5a6c6afec134bd0004ab6a03"},"comment":"Reasonable price","count":12},{"_id":{"$oid":"5a6c6afec134bd0004ab6a02"},"comment":"Prompt service","count":10},{"_id":{"$oid":"5a6c6afec134bd0004ab6a01"},"comment":"Authentic Thai Food","count":8},{"_id":{"$oid":"5a6c6afec134bd0004ab6a00"},"comment":"Pineapple fried rice is my favourite","count":3},{"_id":{"$oid":"5a6c6afec134bd0004ab69ff"},"comment":"Cheap","count":3},{"_id":{"$oid":"5a6c6afec134bd0004ab69fe"},"comment":"Portion is good","count":2},{"_id":{"$oid":"5a6c6afec134bd0004ab69fd"},"comment":"Worth the wait","count":2},{"_id":{"$oid":"5a6c6afec134bd0004ab69fc"},"comment":"Thick Tom Yum soup is good","count":2},{"_id":{"$oid":"5a6c6afec134bd0004ab69fb"},"comment":"Prawn salad","count":1},{"_id":{"$oid":"5a6c6afec134bd0004ab69fa"},"comment":"Tom Ka is good","count":1},{"_id":{"$oid":"5a6c6afec134bd0004ab69f9"},"comment":"Nice chicken pandan leave","count":1},{"_id":{"$oid":"5a6c6afec134bd0004ab69f8"},"comment":"Red Ruby is good","count":1},{"_id":{"$oid":"5a6c6afec134bd0004ab69f7"},"comment":"Love their fried groups with Thai sauce","count":1}],"negative":[{"_id":{"$oid":"5a6c6afec134bd0004ab6a10"},"comment":"Queue is long (Can be up to 1 hr)","count":13},{"_id":{"$oid":"5a6c6afec134bd0004ab6a0f"},"comment":"Food is ok, nothing to shout about","count":4},{"_id":{"$oid":"5a6c6afec134bd0004ab6a0e"},"comment":"Service can definitely be improved","count":2},{"_id":{"$oid":"5a6c6afec134bd0004ab6a0d"},"comment":"Cash term only","count":2},{"_id":{"$oid":"5a6c6afec134bd0004ab6a0c"},"comment":"Prepare to eat and go. Staffs tend to clear the table very fast","count":2},{"_id":{"$oid":"5a6c6afec134bd0004ab6a0b"},"comment":"A bit pricey but value for money","count":2},{"_id":{"$oid":"5a6c6afec134bd0004ab6a0a"},"comment":"Music is too loud","count":1},{"_id":{"$oid":"5a6c6afec134bd0004ab6a09"},"comment":"A little salty","count":1},{"_id":{"$oid":"5a6c6afec134bd0004ab6a08"},"comment":"No air con","count":1},{"_id":{"$oid":"5a6c6afec134bd0004ab6a07"},"comment":"Tom Yum Foong was good but too much vinegar","count":1},{"_id":{"$oid":"5a6c6afec134bd0004ab6a06"},"comment":"Feel it used to be better","count":1},{"_id":{"$oid":"5a6c6afec134bd0004ab6a05"},"comment":"Beef Salad was a bit too tough","count":1}]},"last_updated":{"$date":"2018-02-04T08:02:48.400Z"},"place_id":"ChIJK52KLLQX2jERBvWDyVmZiWI","place_name":"Nakhon Kitchen","__v":2,"location":[103.8883526,1.3595479],"rating":4.2}
{"_id":{"$oid":"5a71e92b20ca290004925e2a"},"photos":[],"review":{"positive":[{"_id":{"$oid":"5a71e92b20ca290004925e37"},"comment":"Good ambience to chill","count":6},{"_id":{"$oid":"5a71e92b20ca290004925e36"},"comment":"Price of drinks are reasonable","count":3},{"_id":{"$oid":"5a71e92b20ca290004925e35"},"comment":"Nice Yakitori","count":2},{"_id":{"$oid":"5a71e92b20ca290004925e34"},"comment":"Spicy edamame is great","count":2},{"_id":{"$oid":"5a71e92b20ca290004925e33"},"comment":"No additional tax on bill","count":1},{"_id":{"$oid":"5a71e92b20ca290004925e32"},"comment":"Food has been consistent","count":1},{"_id":{"$oid":"5a71e92b20ca290004925e31"},"comment":"Tofu shrimp salad and chicken Karaage are favourite","count":1},{"_id":{"$oid":"5a71e92b20ca290004925e30"},"comment":"Smoke duck is satisfying","count":1},{"_id":{"$oid":"5a71e92b20ca290004925e2f"},"comment":"Wagyu is satisfying","count":1},{"_id":{"$oid":"5a71e92b20ca290004925e2e"},"comment":"Good choice of Sake","count":1},{"_id":{"$oid":"5a71e92b20ca290004925e2d"},"comment":"Yakitori pork was unforgettable","count":1},{"_id":{"$oid":"5a71e92b20ca290004925e2c"},"comment":"Good curry","count":1},{"_id":{"$oid":"5a71e92b20ca290004925e2b"},"comment":"Salad was well dressed","count":1}],"negative":[{"_id":{"$oid":"5a71e92b20ca290004925e46"},"comment":"Food was served in disposables. Does not feel like Izakaya","count":3},{"_id":{"$oid":"5a71e92b20ca290004925e45"},"comment":"Food was overpriced","count":1},{"_id":{"$oid":"5a71e92b20ca290004925e44"},"comment":"Fried items were not drained from oil and were not fresh","count":1},{"_id":{"$oid":"5a71e92b20ca290004925e43"},"comment":"Alcoholic drinks are on the expensive side","count":1},{"_id":{"$oid":"5a71e92b20ca290004925e42"},"comment":"Waitress seems to highly recommend anything to get us to order","count":1},{"_id":{"$oid":"5a71e92b20ca290004925e41"},"comment":"No Air Con","count":1},{"_id":{"$oid":"5a71e92b20ca290004925e40"},"comment":"Weekends are especially crowded","count":1},{"_id":{"$oid":"5a71e92b20ca290004925e3f"},"comment":"Katsu Don portion was quite small and tough to chew","count":1},{"_id":{"$oid":"5a71e92b20ca290004925e3e"},"comment":"Yakitori was underwhelming","count":1},{"_id":{"$oid":"5a71e92b20ca290004925e3d"},"comment":"Yakitori beef was too tough","count":1},{"_id":{"$oid":"5a71e92b20ca290004925e3c"},"comment":"Tonkatsu curry bento was so so","count":1},{"_id":{"$oid":"5a71e92b20ca290004925e3b"},"comment":"Beef Donburi","count":1},{"_id":{"$oid":"5a71e92b20ca290004925e3a"},"comment":"Salmon Chirashi was not worth the price. Tasteless and pathetic amount of salmon","count":1},{"_id":{"$oid":"5a71e92b20ca290004925e39"},"comment":"Cod fish teriyaki was just alright","count":1},{"_id":{"$oid":"5a71e92b20ca290004925e38"},"comment":"UnAuthentic Japanese food","count":1}]},"last_updated":{"$date":"2018-02-04T08:02:49.528Z"},"place_id":"ChIJ86UnKbQX2jERcgpYE4SEltY","place_name":"Tachinomiya","__v":1,"location":[103.8880337,1.3593746],"rating":3.5}
{"_id":{"$oid":"5a75dfdebbb9f70004253f7f"},"photos":[],"review":{"positive":[{"_id":{"$oid":"5a75dfdebbb9f70004253f94"},"comment":"Cheap price","count":14},{"_id":{"$oid":"5a75dfdebbb9f70004253f93"},"comment":"Recommend the German pork knuckles","count":6},{"_id":{"$oid":"5a75dfdebbb9f70004253f92"},"comment":"Great Services","count":6},{"_id":{"$oid":"5a75dfdebbb9f70004253f91"},"comment":"Awesome food","count":5},{"_id":{"$oid":"5a75dfdebbb9f70004253f90"},"comment":"Cheap beer","count":5},{"_id":{"$oid":"5a75dfdebbb9f70004253f8f"},"comment":"Good selection","count":4},{"_id":{"$oid":"5a75dfdebbb9f70004253f8e"},"comment":"Beer 1664 on the tap","count":4},{"_id":{"$oid":"5a75dfdebbb9f70004253f8d"},"comment":"Lots of people coming here during the evening for beer","count":4},{"_id":{"$oid":"5a75dfdebbb9f70004253f8c"},"comment":"No service fee nor GST","count":3},{"_id":{"$oid":"5a75dfdebbb9f70004253f8b"},"comment":"Nice ambience","count":2},{"_id":{"$oid":"5a75dfdebbb9f70004253f8a"},"comment":"Ribeye steak","count":2},{"_id":{"$oid":"5a75dfdebbb9f70004253f89"},"comment":"Free flow of plain water","count":2},{"_id":{"$oid":"5a75dfdebbb9f70004253f88"},"comment":"Service staff is the boss himself","count":2},{"_id":{"$oid":"5a75dfdebbb9f70004253f87"},"comment":"Pork Schnitzel","count":1},{"_id":{"$oid":"5a75dfdebbb9f70004253f86"},"comment":"Clean restaurant","count":1},{"_id":{"$oid":"5a75dfdebbb9f70004253f85"},"comment":"Chicken chop","count":1},{"_id":{"$oid":"5a75dfdebbb9f70004253f84"},"comment":"Pork Chop","count":1},{"_id":{"$oid":"5a75dfdebbb9f70004253f83"},"comment":"Chicken cutlet with garlic rice","count":1},{"_id":{"$oid":"5a75dfdebbb9f70004253f82"},"comment":"Great location","count":1},{"_id":{"$oid":"5a75dfdebbb9f70004253f81"},"comment":"Staff remember me and gave me extra sauce without me asking","count":1},{"_id":{"$oid":"5a75dfdebbb9f70004253f80"},"comment":"Pasta was tasty","count":1}],"negative":[{"_id":{"$oid":"5a75dfdebbb9f70004253f9e"},"comment":"More crowded during weekend","count":1},{"_id":{"$oid":"5a75dfdebbb9f70004253f9d"},"comment":"Cash only","count":1},{"_id":{"$oid":"5a75dfdebbb9f70004253f9c"},"comment":"Pork schnitzel","count":1},{"_id":{"$oid":"5a75dfdebbb9f70004253f9b"},"comment":"Mash potato is kinda let down","count":1},{"_id":{"$oid":"5a75dfdebbb9f70004253f9a"},"comment":"Food is \u0026quot;so so\u0026quot; only","count":1},{"_id":{"$oid":"5a75dfdebbb9f70004253f99"},"comment":"Badly cooked food","count":1},{"_id":{"$oid":"5a75dfdebbb9f70004253f98"},"comment":"Garlic rice and pasta is tasteless","count":1},{"_id":{"$oid":"5a75dfdebbb9f70004253f97"},"comment":"Pork Knuckles and steaks are not good","count":1},{"_id":{"$oid":"5a75dfdebbb9f70004253f96"},"comment":"Only re-heat Ribeye steak when it was undercooked","count":1},{"_id":{"$oid":"5a75dfdebbb9f70004253f95"},"comment":"Overcooked burgers","count":1}]},"last_updated":{"$date":"2018-02-04T08:04:37.664Z"},"place_id":"ChIJxTxULLQX2jERwG5iib-vAYI","place_name":"Knuckles Bistro","__v":1,"location":[103.8882559,1.3594594],"rating":4.2}
